Loading package information...                                                  Loading local repository...                                                     [=========                              ] 25% Loading local repository...       [=========                              ] 25% Fetch remote repository...        [==========                             ] 26% Fetch remote repository...        [============                           ] 32% Fetch remote repository...        [=============                          ] 33% Fetch remote repository...        [==============                         ] 35% Fetch remote repository...        [==============                         ] 37% Fetch remote repository...        [===============                        ] 39% Fetch remote repository...        [================                       ] 40% Fetch remote repository...        [================                       ] 42% Fetch remote repository...        [=================                      ] 44% Fetch remote repository...        [==================                     ] 46% Fetch remote repository...        [==================                     ] 47% Fetch remote repository...        [===================                    ] 49% Fetch remote repository...        [====================                   ] 51% Fetch remote repository...        [====================                   ] 52% Fetch remote repository...        [=====================                  ] 54% Fetch remote repository...        [======================                 ] 56% Fetch remote repository...        [=======================                ] 58% Fetch remote repository...        [=======================                ] 59% Fetch remote repository...        [========================               ] 61% Fetch remote repository...        [=========================              ] 63% Fetch remote repository...        [=========================              ] 65% Fetch remote repository...        [==========================             ] 66% Fetch remote repository...        [===========================            ] 68% Fetch remote repository...        [===========================            ] 70% Fetch remote repository...        [============================           ] 72% Fetch remote repository...        [=============================          ] 73% Fetch remote repository...        [=============================          ] 75% Fetch remote repository...        [=============================          ] 75% Computing updates...              [=======================================] 100% Computing updates...             
Available Packages:
  Path                                                                                     | Version      | Description                                                         
  -------                                                                                  | -------      | -------                                                             
  add-ons;addon-google_apis-google-15                                                      | 3            | Google APIs                                                         
  add-ons;addon-google_apis-google-16                                                      | 4            | Google APIs                                                         
  add-ons;addon-google_apis-google-17                                                      | 4            | Google APIs                                                         
  add-ons;addon-google_apis-google-18                                                      | 4            | Google APIs                                                         
  add-ons;addon-google_apis-google-19                                                      | 20           | Google APIs                                                         
  add-ons;addon-google_apis-google-21                                                      | 1            | Google APIs                                                         
  add-ons;addon-google_apis-google-22                                                      | 1            | Google APIs                                                         
  add-ons;addon-google_apis-google-23                                                      | 1            | Google APIs                                                         
  add-ons;addon-google_apis-google-24                                                      | 1            | Google APIs                                                         
  build-tools;19.1.0                                                                       | 19.1.0       | Android SDK Build-Tools 19.1                                        
  build-tools;20.0.0                                                                       | 20.0.0       | Android SDK Build-Tools 20                                          
  build-tools;21.1.2                                                                       | 21.1.2       | Android SDK Build-Tools 21.1.2                                      
  build-tools;22.0.1                                                                       | 22.0.1       | Android SDK Build-Tools 22.0.1                                      
  build-tools;23.0.1                                                                       | 23.0.1       | Android SDK Build-Tools 23.0.1                                      
  build-tools;23.0.2                                                                       | 23.0.2       | Android SDK Build-Tools 23.0.2                                      
  build-tools;23.0.3                                                                       | 23.0.3       | Android SDK Build-Tools 23.0.3                                      
  build-tools;24.0.0                                                                       | 24.0.0       | Android SDK Build-Tools 24                                          
  build-tools;24.0.1                                                                       | 24.0.1       | Android SDK Build-Tools 24.0.1                                      
  build-tools;24.0.2                                                                       | 24.0.2       | Android SDK Build-Tools 24.0.2                                      
  build-tools;24.0.3                                                                       | 24.0.3       | Android SDK Build-Tools 24.0.3                                      
  build-tools;25.0.0                                                                       | 25.0.0       | Android SDK Build-Tools 25                                          
  build-tools;25.0.1                                                                       | 25.0.1       | Android SDK Build-Tools 25.0.1                                      
  build-tools;25.0.2                                                                       | 25.0.2       | Android SDK Build-Tools 25.0.2                                      
  build-tools;25.0.3                                                                       | 25.0.3       | Android SDK Build-Tools 25.0.3                                      
  build-tools;26.0.0                                                                       | 26.0.0       | Android SDK Build-Tools 26                                          
  build-tools;26.0.1                                                                       | 26.0.1       | Android SDK Build-Tools 26.0.1                                      
  build-tools;26.0.2                                                                       | 26.0.2       | Android SDK Build-Tools 26.0.2                                      
  build-tools;26.0.3                                                                       | 26.0.3       | Android SDK Build-Tools 26.0.3                                      
  build-tools;27.0.0                                                                       | 27.0.0       | Android SDK Build-Tools 27                                          
  build-tools;27.0.1                                                                       | 27.0.1       | Android SDK Build-Tools 27.0.1                                      
  build-tools;27.0.2                                                                       | 27.0.2       | Android SDK Build-Tools 27.0.2                                      
  build-tools;27.0.3                                                                       | 27.0.3       | Android SDK Build-Tools 27.0.3                                      
  build-tools;28.0.0                                                                       | 28.0.0       | Android SDK Build-Tools 28                                          
  build-tools;28.0.1                                                                       | 28.0.1       | Android SDK Build-Tools 28.0.1                                      
  build-tools;28.0.2                                                                       | 28.0.2       | Android SDK Build-Tools 28.0.2                                      
  build-tools;28.0.3                                                                       | 28.0.3       | Android SDK Build-Tools 28.0.3                                      
  build-tools;29.0.0                                                                       | 29.0.0       | Android SDK Build-Tools 29                                          
  build-tools;29.0.1                                                                       | 29.0.1       | Android SDK Build-Tools 29.0.1                                      
  build-tools;29.0.2                                                                       | 29.0.2       | Android SDK Build-Tools 29.0.2                                      
  build-tools;29.0.3                                                                       | 29.0.3       | Android SDK Build-Tools 29.0.3                                      
  build-tools;30.0.0                                                                       | 30.0.0       | Android SDK Build-Tools 30                                          
  build-tools;30.0.1                                                                       | 30.0.1       | Android SDK Build-Tools 30.0.1                                      
  build-tools;30.0.2                                                                       | 30.0.2       | Android SDK Build-Tools 30.0.2                                      
  build-tools;30.0.3                                                                       | 30.0.3       | Android SDK Build-Tools 30.0.3                                      
  build-tools;31.0.0                                                                       | 31.0.0       | Android SDK Build-Tools 31                                          
  cmake;3.10.2.4988404                                                                     | 3.10.2       | CMake 3.10.2.4988404                                                
  cmake;3.18.1                                                                             | 3.18.1       | CMake 3.18.1                                                        
  cmake;3.6.4111459                                                                        | 3.6.4111459  | CMake 3.6.4111459                                                   
  cmdline-tools;1.0                                                                        | 1.0          | Android SDK Command-line Tools                                      
  cmdline-tools;2.1                                                                        | 2.1          | Android SDK Command-line Tools                                      
  cmdline-tools;3.0                                                                        | 3.0          | Android SDK Command-line Tools                                      
  cmdline-tools;4.0                                                                        | 4.0          | Android SDK Command-line Tools                                      
  cmdline-tools;5.0                                                                        | 5.0          | Android SDK Command-line Tools                                      
  cmdline-tools;latest                                                                     | 5.0          | Android SDK Command-line Tools (latest)                             
  emulator                                                                                 | 30.7.5       | Android Emulator                                                    
  extras;android;m2repository                                                              | 47.0.0       | Android Support Repository                                          
  extras;google;auto                                                                       | 1.1          | Android Auto Desktop Head Unit Emulator                             
  extras;google;google_play_services                                                       | 49           | Google Play services                                                
  extras;google;instantapps                                                                | 1.9.0        | Google Play Instant Development SDK                                 
  extras;google;m2repository                                                               | 58           | Google Repository                                                   
  extras;google;market_apk_expansion                                                       | 1            | Google Play APK Expansion library                                   
  extras;google;market_licensing                                                           | 1            | Google Play Licensing Library                                       
  extras;google;simulators                                                                 | 1            | Android Auto API Simulators                                         
  extras;google;webdriver                                                                  | 2            | Google Web Driver                                                   
  extras;m2repository;com;android;support;constraint;constraint-layout-solver;1.0.0        | 1            | Solver for ConstraintLayout 1.0.0                                   
  extras;m2repository;com;android;support;constraint;constraint-layout-solver;1.0.0-alpha4 | 1            | com.android.support.constraint:constraint-layout-solver:1.0.0-alpha4
  extras;m2repository;com;android;support;constraint;constraint-layout-solver;1.0.0-alpha8 | 1            | Solver for ConstraintLayout 1.0.0-alpha8                            
  extras;m2repository;com;android;support;constraint;constraint-layout-solver;1.0.0-beta1  | 1            | Solver for ConstraintLayout 1.0.0-beta1                             
  extras;m2repository;com;android;support;constraint;constraint-layout-solver;1.0.0-beta2  | 1            | Solver for ConstraintLayout 1.0.0-beta2                             
  extras;m2repository;com;android;support;constraint;constraint-layout-solver;1.0.0-beta3  | 1            | Solver for ConstraintLayout 1.0.0-beta3                             
  extras;m2repository;com;android;support;constraint;constraint-layout-solver;1.0.0-beta4  | 1            | Solver for ConstraintLayout 1.0.0-beta4                             
  extras;m2repository;com;android;support;constraint;constraint-layout-solver;1.0.0-beta5  | 1            | Solver for ConstraintLayout 1.0.0-beta5                             
  extras;m2repository;com;android;support;constraint;constraint-layout-solver;1.0.1        | 1            | Solver for ConstraintLayout 1.0.1                                   
  extras;m2repository;com;android;support;constraint;constraint-layout-solver;1.0.2        | 1            | Solver for ConstraintLayout 1.0.2                                   
  extras;m2repository;com;android;support;constraint;constraint-layout;1.0.0               | 1            | ConstraintLayout for Android 1.0.0                                  
  extras;m2repository;com;android;support;constraint;constraint-layout;1.0.0-alpha4        | 1            | com.android.support.constraint:constraint-layout:1.0.0-alpha4       
  extras;m2repository;com;android;support;constraint;constraint-layout;1.0.0-alpha8        | 1            | ConstraintLayout for Android 1.0.0-alpha8                           
  extras;m2repository;com;android;support;constraint;constraint-layout;1.0.0-beta1         | 1            | ConstraintLayout for Android 1.0.0-beta1                            
  extras;m2repository;com;android;support;constraint;constraint-layout;1.0.0-beta2         | 1            | ConstraintLayout for Android 1.0.0-beta2                            
  extras;m2repository;com;android;support;constraint;constraint-layout;1.0.0-beta3         | 1            | ConstraintLayout for Android 1.0.0-beta3                            
  extras;m2repository;com;android;support;constraint;constraint-layout;1.0.0-beta4         | 1            | ConstraintLayout for Android 1.0.0-beta4                            
  extras;m2repository;com;android;support;constraint;constraint-layout;1.0.0-beta5         | 1            | ConstraintLayout for Android 1.0.0-beta5                            
  extras;m2repository;com;android;support;constraint;constraint-layout;1.0.1               | 1            | ConstraintLayout for Android 1.0.1                                  
  extras;m2repository;com;android;support;constraint;constraint-layout;1.0.2               | 1            | ConstraintLayout for Android 1.0.2                                  
  ndk-bundle                                                                               | 22.1.7171670 | NDK                                                                 
  ndk;16.1.4479499                                                                         | 16.1.4479499 | NDK (Side by side) 16.1.4479499                                     
  ndk;17.2.4988734                                                                         | 17.2.4988734 | NDK (Side by side) 17.2.4988734                                     
  ndk;18.1.5063045                                                                         | 18.1.5063045 | NDK (Side by side) 18.1.5063045                                     
  ndk;19.2.5345600                                                                         | 19.2.5345600 | NDK (Side by side) 19.2.5345600                                     
  ndk;20.0.5594570                                                                         | 20.0.5594570 | NDK (Side by side) 20.0.5594570                                     
  ndk;20.1.5948944                                                                         | 20.1.5948944 | NDK (Side by side) 20.1.5948944                                     
  ndk;21.0.6113669                                                                         | 21.0.6113669 | NDK (Side by side) 21.0.6113669                                     
  ndk;21.1.6352462                                                                         | 21.1.6352462 | NDK (Side by side) 21.1.6352462                                     
  ndk;21.2.6472646                                                                         | 21.2.6472646 | NDK (Side by side) 21.2.6472646                                     
  ndk;21.3.6528147                                                                         | 21.3.6528147 | NDK (Side by side) 21.3.6528147                                     
  ndk;21.4.7075529                                                                         | 21.4.7075529 | NDK (Side by side) 21.4.7075529                                     
  ndk;22.0.7026061                                                                         | 22.0.7026061 | NDK (Side by side) 22.0.7026061                                     
  ndk;22.1.7171670                                                                         | 22.1.7171670 | NDK (Side by side) 22.1.7171670                                     
  patcher;v4                                                                               | 1            | SDK Patch Applier v4                                                
  platform-tools                                                                           | 31.0.3       | Android SDK Platform-Tools                                          
  platforms;android-10                                                                     | 2            | Android SDK Platform 10                                             
  platforms;android-11                                                                     | 2            | Android SDK Platform 11                                             
  platforms;android-12                                                                     | 3            | Android SDK Platform 12                                             
  platforms;android-13                                                                     | 1            | Android SDK Platform 13                                             
  platforms;android-14                                                                     | 4            | Android SDK Platform 14                                             
  platforms;android-15                                                                     | 5            | Android SDK Platform 15                                             
  platforms;android-16                                                                     | 5            | Android SDK Platform 16                                             
  platforms;android-17                                                                     | 3            | Android SDK Platform 17                                             
  platforms;android-18                                                                     | 3            | Android SDK Platform 18                                             
  platforms;android-19                                                                     | 4            | Android SDK Platform 19                                             
  platforms;android-20                                                                     | 2            | Android SDK Platform 20                                             
  platforms;android-21                                                                     | 2            | Android SDK Platform 21                                             
  platforms;android-22                                                                     | 2            | Android SDK Platform 22                                             
  platforms;android-23                                                                     | 3            | Android SDK Platform 23                                             
  platforms;android-24                                                                     | 2            | Android SDK Platform 24                                             
  platforms;android-25                                                                     | 3            | Android SDK Platform 25                                             
  platforms;android-26                                                                     | 2            | Android SDK Platform 26                                             
  platforms;android-27                                                                     | 3            | Android SDK Platform 27                                             
  platforms;android-28                                                                     | 6            | Android SDK Platform 28                                             
  platforms;android-29                                                                     | 5            | Android SDK Platform 29                                             
  platforms;android-30                                                                     | 3            | Android SDK Platform 30                                             
  platforms;android-31                                                                     | 1            | Android SDK Platform 31                                             
  platforms;android-7                                                                      | 3            | Android SDK Platform 7                                              
  platforms;android-8                                                                      | 3            | Android SDK Platform 8                                              
  platforms;android-9                                                                      | 2            | Android SDK Platform 9                                              
  skiaparser;1                                                                             | 6            | Layout Inspector image server for API 29-30                         
  skiaparser;2                                                                             | 3            | Layout Inspector image server for API S                             
  sources;android-15                                                                       | 2            | Sources for Android 15                                              
  sources;android-16                                                                       | 2            | Sources for Android 16                                              
  sources;android-17                                                                       | 1            | Sources for Android 17                                              
  sources;android-18                                                                       | 1            | Sources for Android 18                                              
  sources;android-19                                                                       | 2            | Sources for Android 19                                              
  sources;android-20                                                                       | 1            | Sources for Android 20                                              
  sources;android-21                                                                       | 1            | Sources for Android 21                                              
  sources;android-22                                                                       | 1            | Sources for Android 22                                              
  sources;android-23                                                                       | 1            | Sources for Android 23                                              
  sources;android-24                                                                       | 1            | Sources for Android 24                                              
  sources;android-25                                                                       | 1            | Sources for Android 25                                              
  sources;android-26                                                                       | 1            | Sources for Android 26                                              
  sources;android-27                                                                       | 1            | Sources for Android 27                                              
  sources;android-28                                                                       | 1            | Sources for Android 28                                              
  sources;android-29                                                                       | 1            | Sources for Android 29                                              
  sources;android-30                                                                       | 1            | Sources for Android 30                                              
  system-images;android-10;default;armeabi-v7a                                             | 5            | ARM EABI v7a System Image                                           
  system-images;android-10;default;x86                                                     | 5            | Intel x86 Atom System Image                                         
  system-images;android-10;google_apis;armeabi-v7a                                         | 6            | Google APIs ARM EABI v7a System Image                               
  system-images;android-10;google_apis;x86                                                 | 6            | Google APIs Intel x86 Atom System Image                             
  system-images;android-14;default;armeabi-v7a                                             | 2            | ARM EABI v7a System Image                                           
  system-images;android-15;default;armeabi-v7a                                             | 5            | ARM EABI v7a System Image                                           
  system-images;android-15;default;x86                                                     | 7            | Intel x86 Atom System Image                                         
  system-images;android-15;google_apis;armeabi-v7a                                         | 6            | Google APIs ARM EABI v7a System Image                               
  system-images;android-15;google_apis;x86                                                 | 7            | Google APIs Intel x86 Atom System Image                             
  system-images;android-16;default;armeabi-v7a                                             | 6            | ARM EABI v7a System Image                                           
  system-images;android-16;default;mips                                                    | 1            | MIPS System Image                                                   
  system-images;android-16;default;x86                                                     | 7            | Intel x86 Atom System Image                                         
  system-images;android-16;google_apis;armeabi-v7a                                         | 6            | Google APIs ARM EABI v7a System Image                               
  system-images;android-16;google_apis;x86                                                 | 7            | Google APIs Intel x86 Atom System Image                             
  system-images;android-17;default;armeabi-v7a                                             | 6            | ARM EABI v7a System Image                                           
  system-images;android-17;default;mips                                                    | 1            | MIPS System Image                                                   
  system-images;android-17;default;x86                                                     | 7            | Intel x86 Atom System Image                                         
  system-images;android-17;google_apis;armeabi-v7a                                         | 6            | Google APIs ARM EABI v7a System Image                               
  system-images;android-17;google_apis;x86                                                 | 7            | Google APIs Intel x86 Atom System Image                             
  system-images;android-18;default;armeabi-v7a                                             | 5            | ARM EABI v7a System Image                                           
  system-images;android-18;default;x86                                                     | 4            | Intel x86 Atom System Image                                         
  system-images;android-18;google_apis;armeabi-v7a                                         | 6            | Google APIs ARM EABI v7a System Image                               
  system-images;android-18;google_apis;x86                                                 | 6            | Google APIs Intel x86 Atom System Image                             
  system-images;android-19;default;armeabi-v7a                                             | 5            | ARM EABI v7a System Image                                           
  system-images;android-19;default;x86                                                     | 6            | Intel x86 Atom System Image                                         
  system-images;android-19;google_apis;armeabi-v7a                                         | 40           | Google APIs ARM EABI v7a System Image                               
  system-images;android-19;google_apis;x86                                                 | 40           | Google APIs Intel x86 Atom System Image                             
  system-images;android-21;android-tv;armeabi-v7a                                          | 3            | Android TV ARM EABI v7a System Image                                
  system-images;android-21;android-tv;x86                                                  | 3            | Android TV Intel x86 Atom System Image                              
  system-images;android-21;default;armeabi-v7a                                             | 4            | ARM EABI v7a System Image                                           
  system-images;android-21;default;x86                                                     | 5            | Intel x86 Atom System Image                                         
  system-images;android-21;default;x86_64                                                  | 5            | Intel x86 Atom_64 System Image                                      
  system-images;android-21;google_apis;armeabi-v7a                                         | 32           | Google APIs ARM EABI v7a System Image                               
  system-images;android-21;google_apis;x86                                                 | 32           | Google APIs Intel x86 Atom System Image                             
  system-images;android-21;google_apis;x86_64                                              | 32           | Google APIs Intel x86 Atom_64 System Image                          
  system-images;android-22;android-tv;x86                                                  | 3            | Android TV Intel x86 Atom System Image                              
  system-images;android-22;default;armeabi-v7a                                             | 2            | ARM EABI v7a System Image                                           
  system-images;android-22;default;x86                                                     | 6            | Intel x86 Atom System Image                                         
  system-images;android-22;default;x86_64                                                  | 6            | Intel x86 Atom_64 System Image                                      
  system-images;android-22;google_apis;armeabi-v7a                                         | 26           | Google APIs ARM EABI v7a System Image                               
  system-images;android-22;google_apis;x86                                                 | 26           | Google APIs Intel x86 Atom System Image                             
  system-images;android-22;google_apis;x86_64                                              | 26           | Google APIs Intel x86 Atom_64 System Image                          
  system-images;android-23;android-tv;armeabi-v7a                                          | 12           | Android TV ARM EABI v7a System Image                                
  system-images;android-23;android-tv;x86                                                  | 21           | Android TV Intel x86 Atom System Image                              
  system-images;android-23;android-wear;armeabi-v7a                                        | 6            | Android Wear ARM EABI v7a System Image                              
  system-images;android-23;android-wear;x86                                                | 6            | Android Wear Intel x86 Atom System Image                            
  system-images;android-23;default;armeabi-v7a                                             | 6            | ARM EABI v7a System Image                                           
  system-images;android-23;default;x86                                                     | 10           | Intel x86 Atom System Image                                         
  system-images;android-23;default;x86_64                                                  | 10           | Intel x86 Atom_64 System Image                                      
  system-images;android-23;google_apis;armeabi-v7a                                         | 33           | Google APIs ARM EABI v7a System Image                               
  system-images;android-23;google_apis;x86                                                 | 33           | Google APIs Intel x86 Atom System Image                             
  system-images;android-23;google_apis;x86_64                                              | 33           | Google APIs Intel x86 Atom_64 System Image                          
  system-images;android-24;android-tv;x86                                                  | 22           | Android TV Intel x86 Atom System Image                              
  system-images;android-24;default;arm64-v8a                                               | 7            | ARM 64 v8a System Image                                             
  system-images;android-24;default;armeabi-v7a                                             | 7            | ARM EABI v7a System Image                                           
  system-images;android-24;default;x86                                                     | 8            | Intel x86 Atom System Image                                         
  system-images;android-24;default;x86_64                                                  | 8            | Intel x86 Atom_64 System Image                                      
  system-images;android-24;google_apis;arm64-v8a                                           | 27           | Google APIs ARM 64 v8a System Image                                 
  system-images;android-24;google_apis;x86                                                 | 27           | Google APIs Intel x86 Atom System Image                             
  system-images;android-24;google_apis;x86_64                                              | 27           | Google APIs Intel x86 Atom_64 System Image                          
  system-images;android-24;google_apis_playstore;x86                                       | 19           | Google Play Intel x86 Atom System Image                             
  system-images;android-25;android-tv;x86                                                  | 16           | Android TV Intel x86 Atom System Image                              
  system-images;android-25;android-wear-cn;armeabi-v7a                                     | 4            | China version of Android Wear ARM EABI v7a System Image             
  system-images;android-25;android-wear-cn;x86                                             | 4            | China version of Android Wear Intel x86 Atom System Image           
  system-images;android-25;android-wear;armeabi-v7a                                        | 3            | Android Wear ARM EABI v7a System Image                              
  system-images;android-25;android-wear;x86                                                | 3            | Android Wear Intel x86 Atom System Image                            
  system-images;android-25;default;x86                                                     | 1            | Intel x86 Atom System Image                                         
  system-images;android-25;default;x86_64                                                  | 1            | Intel x86 Atom_64 System Image                                      
  system-images;android-25;google_apis;arm64-v8a                                           | 18           | Google APIs ARM 64 v8a System Image                                 
  system-images;android-25;google_apis;armeabi-v7a                                         | 18           | Google APIs ARM EABI v7a System Image                               
  system-images;android-25;google_apis;x86                                                 | 18           | Google APIs Intel x86 Atom System Image                             
  system-images;android-25;google_apis;x86_64                                              | 18           | Google APIs Intel x86 Atom_64 System Image                          
  system-images;android-25;google_apis_playstore;x86                                       | 9            | Google Play Intel x86 Atom System Image                             
  system-images;android-26;android-tv;x86                                                  | 14           | Android TV Intel x86 Atom System Image                              
  system-images;android-26;android-wear-cn;x86                                             | 4            | China version of Android Wear Intel x86 Atom System Image           
  system-images;android-26;android-wear;x86                                                | 4            | Android Wear Intel x86 Atom System Image                            
  system-images;android-26;default;x86                                                     | 1            | Intel x86 Atom System Image                                         
  system-images;android-26;default;x86_64                                                  | 1            | Intel x86 Atom_64 System Image                                      
  system-images;android-26;google_apis;x86                                                 | 16           | Google APIs Intel x86 Atom System Image                             
  system-images;android-26;google_apis;x86_64                                              | 16           | Google APIs Intel x86 Atom_64 System Image                          
  system-images;android-26;google_apis_playstore;x86                                       | 7            | Google Play Intel x86 Atom System Image                             
  system-images;android-27;android-tv;x86                                                  | 9            | Android TV Intel x86 Atom System Image                              
  system-images;android-27;default;x86                                                     | 1            | Intel x86 Atom System Image                                         
  system-images;android-27;default;x86_64                                                  | 1            | Intel x86 Atom_64 System Image                                      
  system-images;android-27;google_apis;x86                                                 | 11           | Google APIs Intel x86 Atom System Image                             
  system-images;android-27;google_apis_playstore;x86                                       | 3            | Google Play Intel x86 Atom System Image                             
  system-images;android-28;android-tv;x86                                                  | 10           | Android TV Intel x86 Atom System Image                              
  system-images;android-28;android-wear-cn;x86                                             | 6            | China version of Wear OS Intel x86 Atom System Image                
  system-images;android-28;android-wear;x86                                                | 6            | Wear OS Intel x86 Atom System Image                                 
  system-images;android-28;default;x86                                                     | 4            | Intel x86 Atom System Image                                         
  system-images;android-28;default;x86_64                                                  | 4            | Intel x86 Atom_64 System Image                                      
  system-images;android-28;google_apis;x86                                                 | 12           | Google APIs Intel x86 Atom System Image                             
  system-images;android-28;google_apis;x86_64                                              | 11           | Google APIs Intel x86 Atom_64 System Image                          
  system-images;android-28;google_apis_playstore;x86                                       | 9            | Google Play Intel x86 Atom System Image                             
  system-images;android-28;google_apis_playstore;x86_64                                    | 8            | Google Play Intel x86 Atom_64 System Image                          
  system-images;android-29;android-tv;x86                                                  | 3            | Android TV Intel x86 Atom System Image                              
  system-images;android-29;default;x86                                                     | 7            | Intel x86 Atom System Image                                         
  system-images;android-29;default;x86_64                                                  | 7            | Intel x86 Atom_64 System Image                                      
  system-images;android-29;google_apis;x86                                                 | 11           | Google APIs Intel x86 Atom System Image                             
  system-images;android-29;google_apis;x86_64                                              | 11           | Google APIs Intel x86 Atom_64 System Image                          
  system-images;android-29;google_apis_playstore;x86                                       | 8            | Google Play Intel x86 Atom System Image                             
  system-images;android-29;google_apis_playstore;x86_64                                    | 8            | Google Play Intel x86 Atom_64 System Image                          
  system-images;android-30;android-tv;x86                                                  | 3            | Android TV Intel x86 Atom System Image                              
  system-images;android-30;google-tv;x86                                                   | 3            | Google TV Intel x86 Atom System Image                               
  system-images;android-30;google_apis;x86                                                 | 9            | Google APIs Intel x86 Atom System Image                             
  system-images;android-30;google_apis;x86_64                                              | 10           | Google APIs Intel x86 Atom_64 System Image                          
  system-images;android-30;google_apis_playstore;x86                                       | 9            | Google Play Intel x86 Atom System Image                             
  system-images;android-30;google_apis_playstore;x86_64                                    | 10           | Google Play Intel x86 Atom_64 System Image                          
  system-images;android-31;google_apis;arm64-v8a                                           | 6            | Google APIs ARM 64 v8a System Image                                 
  system-images;android-31;google_apis;x86_64                                              | 6            | Google APIs Intel x86 Atom_64 System Image                          
  system-images;android-31;google_apis_playstore;arm64-v8a                                 | 6            | Google Play ARM 64 v8a System Image                                 
  system-images;android-31;google_apis_playstore;x86_64                                    | 6            | Google Play Intel x86 Atom_64 System Image                          

